{"count":1450,"next":"https://pokeapi.co/api/v2/pokemon-form?offset=40&limit=20","previous":"https://pokeapi.co/api/v2/pokemon-form?offset=0&limit=20","results":[{"name":"spearow","url":"https://pokeapi.co/api/v2/pokemon-form/21/"},{"name":"fearow","url":"https://pokeapi.co/api/v2/pokemon-form/22/"},{"name":"ekans","url":"https://pokeapi.co/api/v2/pokemon-form/23/"},{"name":"arbok","url":"https://pokeapi.co/api/v2/pokemon-form/24/"},{"name":"pikachu","url":"https://pokeapi.co/api/v2/pokemon-form/25/"},{"name":"raichu","url":"https://pokeapi.co/api/v2/pokemon-form/26/"},{"name":"sandshrew","url":"https://pokeapi.co/api/v2/pokemon-form/27/"},{"name":"sandslash","url":"https://pokeapi.co/api/v2/pokemon-form/28/"},{"name":"nidoran-f","url":"https://pokeapi.co/api/v2/pokemon-form/29/"},{"name":"nidorina","url":"https://pokeapi.co/api/v2/pokemon-form/30/"},{"name":"nidoqueen","url":"https://pokeapi.co/api/v2/pokemon-form/31/"},{"name":"nidoran-m","url":"https://pokeapi.co/api/v2/pokemon-form/32/"},{"name":"nidorino","url":"https://pokeapi.co/api/v2/pokemon-form/33/"},{"name":"nidoking","url":"https://pokeapi.co/api/v2/pokemon-form/34/"},{"name":"clefairy","url":"https://pokeapi.co/api/v2/pokemon-form/35/"},{"name":"clefable","url":"https://pokeapi.co/api/v2/pokemon-form/36/"},{"name":"vulpix","url":"https://pokeapi.co/api/v2/pokemon-form/37/"},{"name":"ninetales","url":"https://pokeapi.co/api/v2/pokemon-form/38/"},{"name":"jigglypuff","url":"https://pokeapi.co/api/v2/pokemon-form/39/"},{"name":"wigglytuff","url":"https://pokeapi.co/api/v2/pokemon-form/40/"}]}